{
  "href": "https://api.spotify.com/v1/browse/new-releases?country=IT&offset=0&limit=5",
  "albums": {
  "items": [
    {
      "album_type": "album",
      "artists": [
        {
          "external_urls": {
            "spotify": "https://open.spotify.com/artist/2VZNmg4vCnew4Pavo8zDdW"
          },
          "href": "https://api.spotify.com/v1/artists/2VZNmg4vCnew4Pavo8zDdW",
          "id": "2VZNmg4vCnew4Pavo8zDdW",
          "name": "Max Richter",
          "type": "artist",
          "uri": "spotify:artist:2VZNmg4vCnew4Pavo8zDdW"
        }
      ],
      "available_markets": [
        "AD",
        "AE",
        "AG",
        "AL",
        "AM",
        "AO",
        "AR",
        "AT",
        "AU",
        "AZ",
        "BA",
        "BB",
        "BD",
        "BE",
        "BF",
        "BG",
        "BH",
        "BI",
        "BJ",
        "BN",
        "BO",
        "BR",
        "BS",
        "BT",
        "BW",
        "BY",
        "BZ",
        "CA",
        "CH",
        "CI",
        "CL",
        "CM",
        "CO",
        "CR",
        "CV",
        "CW",
        "CY",
        "CZ",
        "DE",
        "DJ",
        "DK",
        "DM",
        "DO",
        "DZ",
        "EC",
        "EE",
        "EG",
        "ES",
        "FI",
        "FJ",
        "FM",
        "FR",
        "GA",
        "GB",
        "GD",
        "GE",
        "GH",
        "GM",
        "GN",
        "GQ",
        "GR",
        "GT",
        "GW",
        "GY",
        "HK",
        "HN",
        "HR",
        "HT",
        "HU",
        "ID",
        "IE",
        "IL",
        "IN",
        "IS",
        "IT",
        "JM",
        "JO",
        "JP",
        "KE",
        "KG",
        "KH",
        "KI",
        "KM",
        "KN",
        "KR",
        "KW",
        "KZ",
        "LA",
        "LB",
        "LC",
        "LI",
        "LK",
        "LR",
        "LS",
        "LT",
        "LU",
        "LV",
        "MA",
        "MC",
        "MD",
        "ME",
        "MG",
        "MH",
        "MK",
        "ML",
        "MN",
        "MO",
        "MR",
        "MT",
        "MU",
        "MV",
        "MW",
        "MX",
        "MY",
        "MZ",
        "NA",
        "NE",
        "NG",
        "NI",
        "NL",
        "NO",
        "NP",
        "NR",
        "NZ",
        "OM",
        "PA",
        "PE",
        "PG",
        "PH",
        "PK",
        "PL",
        "PS",
        "PT",
        "PW",
        "PY",
        "QA",
        "RO",
        "RS",
        "RU",
        "RW",
        "SA",
        "SB",
        "SC",
        "SE",
        "SG",
        "SI",
        "SK",
        "SL",
        "SM",
        "SN",
        "SR",
        "ST",
        "SV",
        "SZ",
        "TD",
        "TG",
        "TH",
        "TL",
        "TN",
        "TO",
        "TR",
        "TT",
        "TV",
        "TW",
        "TZ",
        "UA",
        "UG",
        "US",
        "UY",
        "UZ",
        "VC",
        "VN",
        "VU",
        "WS",
        "XK",
        "ZA",
        "ZM",
        "ZW"
      ],
      "external_urls": {
        "spotify": "https://open.spotify.com/album/3ZQ76t0fo1GxMP3FWUJaDu"
      },
      "href": "https://api.spotify.com/v1/albums/3ZQ76t0fo1GxMP3FWUJaDu",
      "id": "3ZQ76t0fo1GxMP3FWUJaDu",
      "images": [
        {
          "height": 640,
          "url": "https://i.scdn.co/image/ab67616d0000b27344df4615f30bf50067f2e208",
          "width": 640
        },
        {
          "height": 300,
          "url": "https://i.scdn.co/image/ab67616d00001e0244df4615f30bf50067f2e208",
          "width": 300
        },
        {
          "height": 64,
          "url": "https://i.scdn.co/image/ab67616d0000485144df4615f30bf50067f2e208",
          "width": 64
        }
      ],
      "name": "Voices (Pt. 1 & 2)",
      "release_date": "2021-05-21",
      "release_date_precision": "day",
      "total_tracks": 20,
      "type": "album",
      "uri": "spotify:album:3ZQ76t0fo1GxMP3FWUJaDu"
    },
    {
      "album_type": "album",
      "artists": [
        {
          "external_urls": {
            "spotify": "https://open.spotify.com/artist/09LxneoTmRpuN3Jp8Ut4EX"
          },
          "href": "https://api.spotify.com/v1/artists/09LxneoTmRpuN3Jp8Ut4EX",
          "id": "09LxneoTmRpuN3Jp8Ut4EX",
          "name": "Cosmo",
          "type": "artist",
          "uri": "spotify:artist:09LxneoTmRpuN3Jp8Ut4EX"
        }
      ],
      "available_markets": [
        "AD",
        "AE",
        "AG",
        "AL",
        "AM",
        "AO",
        "AR",
        "AT",
        "AU",
        "AZ",
        "BA",
        "BB",
        "BD",
        "BE",
        "BF",
        "BG",
        "BH",
        "BI",
        "BJ",
        "BN",
        "BO",
        "BR",
        "BS",
        "BT",
        "BW",
        "BY",
        "BZ",
        "CA",
        "CH",
        "CI",
        "CL",
        "CM",
        "CO",
        "CR",
        "CV",
        "CW",
        "CY",
        "CZ",
        "DE",
        "DJ",
        "DK",
        "DM",
        "DO",
        "DZ",
        "EC",
        "EE",
        "EG",
        "ES",
        "FI",
        "FJ",
        "FM",
        "FR",
        "GA",
        "GB",
        "GD",
        "GE",
        "GH",
        "GM",
        "GN",
        "GQ",
        "GR",
        "GT",
        "GW",
        "GY",
        "HK",
        "HN",
        "HR",
        "HT",
        "HU",
        "ID",
        "IE",
        "IL",
        "IN",
        "IS",
        "IT",
        "JM",
        "JO",
        "JP",
        "KE",
        "KG",
        "KH",
        "KI",
        "KM",
        "KN",
        "KR",
        "KW",
        "KZ",
        "LA",
        "LB",
        "LC",
        "LI",
        "LK",
        "LR",
        "LS",
        "LT",
        "LU",
        "LV",
        "MA",
        "MC",
        "MD",
        "ME",
        "MG",
        "MH",
        "MK",
        "ML",
        "MN",
        "MO",
        "MR",
        "MT",
        "MU",
        "MV",
        "MW",
        "MX",
        "MY",
        "MZ",
        "NA",
        "NE",
        "NG",
        "NI",
        "NL",
        "NO",
        "NP",
        "NR",
        "NZ",
        "OM",
        "PA",
        "PE",
        "PG",
        "PH",
        "PK",
        "PL",
        "PS",
        "PT",
        "PW",
        "PY",
        "QA",
        "RO",
        "RS",
        "RU",
        "RW",
        "SA",
        "SB",
        "SC",
        "SE",
        "SG",
        "SI",
        "SK",
        "SL",
        "SM",
        "SN",
        "SR",
        "ST",
        "SV",
        "SZ",
        "TD",
        "TG",
        "TH",
        "TL",
        "TN",
        "TO",
        "TR",
        "TT",
        "TV",
        "TW",
        "TZ",
        "UA",
        "UG",
        "US",
        "UY",
        "UZ",
        "VC",
        "VN",
        "VU",
        "WS",
        "XK",
        "ZA",
        "ZM",
        "ZW"
      ],
      "external_urls": {
        "spotify": "https://open.spotify.com/album/7ePIYYUhWiw1bPKPj31DCa"
      },
      "href": "https://api.spotify.com/v1/albums/7ePIYYUhWiw1bPKPj31DCa",
      "id": "7ePIYYUhWiw1bPKPj31DCa",
      "images": [
        {
          "height": 640,
          "url": "https://i.scdn.co/image/ab67616d0000b273d811db472526db66cf7830f0",
          "width": 640
        },
        {
          "height": 300,
          "url": "https://i.scdn.co/image/ab67616d00001e02d811db472526db66cf7830f0",
          "width": 300
        },
        {
          "height": 64,
          "url": "https://i.scdn.co/image/ab67616d00004851d811db472526db66cf7830f0",
          "width": 64
        }
      ],
      "name": "La terza estate dell'amore",
      "release_date": "2021-05-21",
      "release_date_precision": "day",
      "total_tracks": 12,
      "type": "album",
      "uri": "spotify:album:7ePIYYUhWiw1bPKPj31DCa"
    },
    {
      "album_type": "album",
      "artists": [
        {
          "external_urls": {
            "spotify": "https://open.spotify.com/artist/1McMsnEElThX1knmY4oliG"
          },
          "href": "https://api.spotify.com/v1/artists/1McMsnEElThX1knmY4oliG",
          "id": "1McMsnEElThX1knmY4oliG",
          "name": "Olivia Rodrigo",
          "type": "artist",
          "uri": "spotify:artist:1McMsnEElThX1knmY4oliG"
        }
      ],
      "available_markets": [
        "AD",
        "AE",
        "AG",
        "AL",
        "AM",
        "AO",
        "AR",
        "AT",
        "AU",
        "AZ",
        "BA",
        "BB",
        "BD",
        "BE",
        "BF",
        "BG",
        "BH",
        "BI",
        "BJ",
        "BN",
        "BO",
        "BR",
        "BS",
        "BT",
        "BW",
        "BY",
        "BZ",
        "CA",
        "CH",
        "CI",
        "CL",
        "CM",
        "CO",
        "CR",
        "CV",
        "CW",
        "CY",
        "CZ",
        "DE",
        "DJ",
        "DK",
        "DM",
        "DO",
        "DZ",
        "EC",
        "EE",
        "EG",
        "ES",
        "FI",
        "FJ",
        "FM",
        "FR",
        "GA",
        "GB",
        "GD",
        "GE",
        "GH",
        "GM",
        "GN",
        "GQ",
        "GR",
        "GT",
        "GW",
        "GY",
        "HK",
        "HN",
        "HR",
        "HT",
        "HU",
        "ID",
        "IE",
        "IL",
        "IN",
        "IS",
        "IT",
        "JM",
        "JO",
        "JP",
        "KE",
        "KG",
        "KH",
        "KI",
        "KM",
        "KN",
        "KR",
        "KW",
        "KZ",
        "LA",
        "LB",
        "LC",
        "LI",
        "LK",
        "LR",
        "LS",
        "LT",
        "LU",
        "LV",
        "MA",
        "MC",
        "MD",
        "ME",
        "MG",
        "MH",
        "MK",
        "ML",
        "MN",
        "MO",
        "MR",
        "MT",
        "MU",
        "MV",
        "MW",
        "MX",
        "MY",
        "MZ",
        "NA",
        "NE",
        "NG",
        "NI",
        "NL",
        "NO",
        "NP",
        "NR",
        "NZ",
        "OM",
        "PA",
        "PE",
        "PG",
        "PH",
        "PK",
        "PL",
        "PS",
        "PT",
        "PW",
        "PY",
        "QA",
        "RO",
        "RS",
        "RU",
        "RW",
        "SA",
        "SB",
        "SC",
        "SE",
        "SG",
        "SI",
        "SK",
        "SL",
        "SM",
        "SN",
        "SR",
        "ST",
        "SV",
        "SZ",
        "TD",
        "TG",
        "TH",
        "TL",
        "TN",
        "TO",
        "TR",
        "TT",
        "TV",
        "TW",
        "TZ",
        "UA",
        "UG",
        "US",
        "UY",
        "UZ",
        "VC",
        "VN",
        "VU",
        "WS",
        "XK",
        "ZA",
        "ZM",
        "ZW"
      ],
      "external_urls": {
        "spotify": "https://open.spotify.com/album/6s84u2TUpR3wdUv4NgKA2j"
      },
      "href": "https://api.spotify.com/v1/albums/6s84u2TUpR3wdUv4NgKA2j",
      "id": "6s84u2TUpR3wdUv4NgKA2j",
      "images": [
        {
          "height": 640,
          "url": "https://i.scdn.co/image/ab67616d0000b273a91c10fe9472d9bd89802e5a",
          "width": 640
        },
        {
          "height": 300,
          "url": "https://i.scdn.co/image/ab67616d00001e02a91c10fe9472d9bd89802e5a",
          "width": 300
        },
        {
          "height": 64,
          "url": "https://i.scdn.co/image/ab67616d00004851a91c10fe9472d9bd89802e5a",
          "width": 64
        }
      ],
      "name": "SOUR",
      "release_date": "2021-05-21",
      "release_date_precision": "day",
      "total_tracks": 11,
      "type": "album",
      "uri": "spotify:album:6s84u2TUpR3wdUv4NgKA2j"
    },
    {
      "album_type": "album",
      "artists": [
        {
          "external_urls": {
            "spotify": "https://open.spotify.com/artist/0lQtBhjEJpoOroQS6fbWMc"
          },
          "href": "https://api.spotify.com/v1/artists/0lQtBhjEJpoOroQS6fbWMc",
          "id": "0lQtBhjEJpoOroQS6fbWMc",
          "name": "Aka 7even",
          "type": "artist",
          "uri": "spotify:artist:0lQtBhjEJpoOroQS6fbWMc"
        }
      ],
      "available_markets": [
        "AD",
        "AE",
        "AG",
        "AL",
        "AM",
        "AO",
        "AR",
        "AT",
        "AU",
        "AZ",
        "BA",
        "BB",
        "BD",
        "BE",
        "BF",
        "BG",
        "BH",
        "BI",
        "BJ",
        "BN",
        "BO",
        "BR",
        "BS",
        "BT",
        "BW",
        "BY",
        "BZ",
        "CA",
        "CH",
        "CI",
        "CL",
        "CM",
        "CO",
        "CR",
        "CV",
        "CW",
        "CY",
        "CZ",
        "DE",
        "DJ",
        "DK",
        "DM",
        "DO",
        "DZ",
        "EC",
        "EE",
        "EG",
        "ES",
        "FI",
        "FJ",
        "FM",
        "FR",
        "GA",
        "GB",
        "GD",
        "GE",
        "GH",
        "GM",
        "GN",
        "GQ",
        "GR",
        "GT",
        "GW",
        "GY",
        "HK",
        "HN",
        "HR",
        "HT",
        "HU",
        "ID",
        "IE",
        "IL",
        "IN",
        "IS",
        "IT",
        "JM",
        "JO",
        "JP",
        "KE",
        "KG",
        "KH",
        "KI",
        "KM",
        "KN",
        "KR",
        "KW",
        "KZ",
        "LA",
        "LB",
        "LC",
        "LI",
        "LK",
        "LR",
        "LS",
        "LT",
        "LU",
        "LV",
        "MA",
        "MC",
        "MD",
        "ME",
        "MG",
        "MH",
        "MK",
        "ML",
        "MN",
        "MO",
        "MR",
        "MT",
        "MU",
        "MV",
        "MW",
        "MX",
        "MY",
        "MZ",
        "NA",
        "NE",
        "NG",
        "NI",
        "NL",
        "NO",
        "NP",
        "NR",
        "NZ",
        "OM",
        "PA",
        "PE",
        "PG",
        "PH",
        "PK",
        "PL",
        "PS",
        "PT",
        "PW",
        "PY",
        "QA",
        "RO",
        "RS",
        "RU",
        "RW",
        "SA",
        "SB",
        "SC",
        "SE",
        "SG",
        "SI",
        "SK",
        "SL",
        "SM",
        "SN",
        "SR",
        "ST",
        "SV",
        "SZ",
        "TD",
        "TG",
        "TH",
        "TL",
        "TN",
        "TO",
        "TR",
        "TT",
        "TV",
        "TW",
        "TZ",
        "UA",
        "UG",
        "US",
        "UY",
        "UZ",
        "VC",
        "VN",
        "VU",
        "WS",
        "XK",
        "ZA",
        "ZM",
        "ZW"
      ],
      "external_urls": {
        "spotify": "https://open.spotify.com/album/2bqAWd0VQTvIaAxIQSKe7i"
      },
      "href": "https://api.spotify.com/v1/albums/2bqAWd0VQTvIaAxIQSKe7i",
      "id": "2bqAWd0VQTvIaAxIQSKe7i",
      "images": [
        {
          "height": 640,
          "url": "https://i.scdn.co/image/ab67616d0000b273e326524996ef51c2cd65bc58",
          "width": 640
        },
        {
          "height": 300,
          "url": "https://i.scdn.co/image/ab67616d00001e02e326524996ef51c2cd65bc58",
          "width": 300
        },
        {
          "height": 64,
          "url": "https://i.scdn.co/image/ab67616d00004851e326524996ef51c2cd65bc58",
          "width": 64
        }
      ],
      "name": "Aka 7even",
      "release_date": "2021-05-21",
      "release_date_precision": "day",
      "total_tracks": 12,
      "type": "album",
      "uri": "spotify:album:2bqAWd0VQTvIaAxIQSKe7i"
    },
    {
      "album_type": "album",
      "artists": [
        {
          "external_urls": {
            "spotify": "https://open.spotify.com/artist/3YQKmKGau1PzlVlkL1iodx"
          },
          "href": "https://api.spotify.com/v1/artists/3YQKmKGau1PzlVlkL1iodx",
          "id": "3YQKmKGau1PzlVlkL1iodx",
          "name": "Twenty One Pilots",
          "type": "artist",
          "uri": "spotify:artist:3YQKmKGau1PzlVlkL1iodx"
        }
      ],
      "available_markets": [
        "AD",
        "AE",
        "AG",
        "AL",
        "AM",
        "AO",
        "AR",
        "AT",
        "AU",
        "AZ",
        "BA",
        "BB",
        "BD",
        "BE",
        "BF",
        "BG",
        "BH",
        "BI",
        "BJ",
        "BN",
        "BO",
        "BR",
        "BS",
        "BT",
        "BW",
        "BY",
        "BZ",
        "CA",
        "CH",
        "CI",
        "CL",
        "CM",
        "CO",
        "CR",
        "CV",
        "CW",
        "CY",
        "CZ",
        "DE",
        "DJ",
        "DK",
        "DM",
        "DO",
        "DZ",
        "EC",
        "EE",
        "EG",
        "ES",
        "FI",
        "FJ",
        "FM",
        "FR",
        "GA",
        "GB",
        "GD",
        "GE",
        "GH",
        "GM",
        "GN",
        "GQ",
        "GR",
        "GT",
        "GW",
        "GY",
        "HK",
        "HN",
        "HR",
        "HT",
        "HU",
        "ID",
        "IE",
        "IL",
        "IN",
        "IS",
        "IT",
        "JM",
        "JO",
        "JP",
        "KE",
        "KG",
        "KH",
        "KI",
        "KM",
        "KN",
        "KR",
        "KW",
        "KZ",
        "LA",
        "LB",
        "LC",
        "LI",
        "LK",
        "LR",
        "LS",
        "LT",
        "LU",
        "LV",
        "MA",
        "MC",
        "MD",
        "ME",
        "MG",
        "MH",
        "MK",
        "ML",
        "MN",
        "MO",
        "MR",
        "MT",
        "MU",
        "MV",
        "MW",
        "MX",
        "MY",
        "MZ",
        "NA",
        "NE",
        "NG",
        "NI",
        "NL",
        "NO",
        "NP",
        "NR",
        "NZ",
        "OM",
        "PA",
        "PE",
        "PG",
        "PH",
        "PK",
        "PL",
        "PS",
        "PT",
        "PW",
        "PY",
        "QA",
        "RO",
        "RS",
        "RU",
        "RW",
        "SA",
        "SB",
        "SC",
        "SE",
        "SG",
        "SI",
        "SK",
        "SL",
        "SM",
        "SN",
        "SR",
        "ST",
        "SV",
        "SZ",
        "TD",
        "TG",
        "TH",
        "TL",
        "TN",
        "TO",
        "TR",
        "TT",
        "TV",
        "TW",
        "TZ",
        "UA",
        "UG",
        "US",
        "UY",
        "UZ",
        "VC",
        "VN",
        "VU",
        "WS",
        "XK",
        "ZA",
        "ZM",
        "ZW"
      ],
      "external_urls": {
        "spotify": "https://open.spotify.com/album/0Q5XBpCYFgUWiG9DUWyAmJ"
      },
      "href": "https://api.spotify.com/v1/albums/0Q5XBpCYFgUWiG9DUWyAmJ",
      "id": "0Q5XBpCYFgUWiG9DUWyAmJ",
      "images": [
        {
          "height": 640,
          "url": "https://i.scdn.co/image/ab67616d0000b27320b467550945fd123e00f0a5",
          "width": 640
        },
        {
          "height": 300,
          "url": "https://i.scdn.co/image/ab67616d00001e0220b467550945fd123e00f0a5",
          "width": 300
        },
        {
          "height": 64,
          "url": "https://i.scdn.co/image/ab67616d0000485120b467550945fd123e00f0a5",
          "width": 64
        }
      ],
      "name": "Scaled And Icy",
      "release_date": "2021-05-21",
      "release_date_precision": "day",
      "total_tracks": 11,
      "type": "album",
      "uri": "spotify:album:0Q5XBpCYFgUWiG9DUWyAmJ"
    }
  ]
},
    "limit": 5,
    "next": "https://api.spotify.com/v1/browse/new-releases?country=IT&offset=5&limit=5",
    "offset": 0,
    "previous": null,
    "total": 100
}